data_prep
…
Figure 1: Heat map of inflationary impact on key itens iver 2023, published by the Straights Times.

@Straits_Times based their visualization on data by @Department_of_Statistics_Singapore, available in CSV format with each row representing the inflation rate of each item by month. The relevant column for data processing include:

Data Series: The category of the item, such as “Food,” “Clothing & Footwear,” etc.

load dataset

# Load the dataset
dataset <- read_csv("M212911.csv", skip = 10)
dataset <- dataset[1:152,]
dataset

# A tibble: 152 × 749
   `Data Series`          `2024 Apr` `2024 Mar` `2024 Feb` `2024 Jan` `2023 Dec`
   <chr>                       <dbl>      <dbl>      <dbl>      <dbl>      <dbl>
 1 All Items                     2.7        2.7        3.4        2.9        3.7
 2 Food                          2.8        3          3.8        3.3        3.7
 3 Food Excl Food Servin…        0.6        0.9        3.2        2.2        2.5
 4 Bread & Cereals               3.5        3.8        4.3        4.8        4.9
 5 Rice                          2.2        3.7        4          4.3        4.8
 6 Flour                        -0.8       -1.4        1.3       -1.6        6.7
 7 Bread                         3.8        4.3        5.5        6.7        6.1
 8 Noodles & Pasta               0.7        1.5        2          2.6        1.2
 9 Biscuits & Cookies            2.5        2          3.9        4.4        1.4
10 Cakes & Pastries              4.5        3.8        3.6        3.7        5.1
# ℹ 142 more rows
# ℹ 743 more variables: `2023 Nov` <dbl>, `2023 Oct` <dbl>, `2023 Sep` <dbl>,
#   `2023 Aug` <dbl>, `2023 Jul` <dbl>, `2023 Jun` <dbl>, `2023 May` <dbl>,
#   `2023 Apr` <dbl>, `2023 Mar` <dbl>, `2023 Feb` <dbl>, `2023 Jan` <dbl>,
#   `2022 Dec` <dbl>, `2022 Nov` <dbl>, `2022 Oct` <dbl>, `2022 Sep` <dbl>,
#   `2022 Aug` <dbl>, `2022 Jul` <dbl>, `2022 Jun` <dbl>, `2022 May` <dbl>,
#   `2022 Apr` <dbl>, `2022 Mar` <dbl>, `2022 Feb` <dbl>, `2022 Jan` <dbl>, …
…
  separate(Year_Month, into = c("Year", "Month"), sep = " ")|>
  mutate(Year = as.integer(Year), 
         Month = factor(Month, levels = c("Jan", "Feb", "Mar", "Apr", "May", "Jun", "Jul", "Aug", "Sep", "Oct", "Nov", "Dec")),
         Date = as.Date(paste(Year, Month, "01", sep = "-"), format = "%Y-%b-%d"))
# Adjust the data series names for better readability
long_data <- long_data|>
  mutate(`Data Series` = case_when(
    `Data Series` == "Miscellaneous Goods & Services" ~ "Miscellaneous\nGoods & Services",
    `Data Series` == "Household Durables & Services" ~ "Household Durables\n& Services",
    `Data Series` == "Food Excl Food Serving Services" ~ "Food Excl Food\nServing Services",
    TRUE ~ as.character(`Data Series`)
  ))
long_data

# A tibble: 720 × 5
   `Data Series`  Year Month Percent_Change Date      
   <chr>         <int> <fct>          <dbl> <date>    
 1 All Items      2023 Dec              3.7 2023-12-01
 2 All Items      2023 Nov              3.6 2023-11-01
 3 All Items      2023 Oct              4.7 2023-10-01
 4 All Items      2023 Sep              4.1 2023-09-01
 5 All Items      2023 Aug              4   2023-08-01
 6 All Items      2023 Jul              4.1 2023-07-01
 7 All Items      2023 Jun              4.5 2023-06-01
 8 All Items      2023 May              5.1 2023-05-01
 9 All Items      2023 Apr              5.7 2023-04-01
10 All Items      2023 Mar              5.5 2023-03-01
# ℹ 710 more rows
…
# Combine the average data with the original long data
combined_data <- bind_rows(long_data, average_data)

# Ensure "Average" appears last in the plot
combined_data$Month <- factor(combined_data$Month, levels = c(levels(long_data$Month), "Average"))

# Filter out any NA values
combined_data <- combined_data|> filter(!is.na(Month))

print(combined_data)

# A tibble: 156 × 4
   `Data Series`  Year Month Percent_Change
   <chr>         <dbl> <fct>          <dbl>
 1 All Items      2023 Dec              3.7
 2 All Items      2023 Nov              3.6
 3 All Items      2023 Oct              4.7
 4 All Items      2023 Sep              4.1
 5 All Items      2023 Aug              4  
 6 All Items      2023 Jul              4.1
 7 All Items      2023 Jun              4.5
 8 All Items      2023 May              5.1
 9 All Items      2023 Apr              5.7
10 All Items      2023 Mar              5.5
# ℹ 146 more rows
…
