P3-Dimgray-Assignment
…
Data

inflation_rate <- read_csv("M212911.csv", skip = 10)

inflation_rate <- inflation_rate[1:152,]

inflation_rate 

# A tibble: 152 × 749
   `Data Series`          `2024 Apr` `2024 Mar` `2024 Feb` `2024 Jan` `2023 Dec`
   <chr>                       <dbl>      <dbl>      <dbl>      <dbl>      <dbl>
 1 All Items                     2.7        2.7        3.4        2.9        3.7
 2 Food                          2.8        3          3.8        3.3        3.7
 3 Food Excl Food Servin…        0.6        0.9        3.2        2.2        2.5
 4 Bread & Cereals               3.5        3.8        4.3        4.8        4.9
 5 Rice                          2.2        3.7        4          4.3        4.8
 6 Flour                        -0.8       -1.4        1.3       -1.6        6.7
 7 Bread                         3.8        4.3        5.5        6.7        6.1
 8 Noodles & Pasta               0.7        1.5        2          2.6        1.2
 9 Biscuits & Cookies            2.5        2          3.9        4.4        1.4
10 Cakes & Pastries              4.5        3.8        3.6        3.7        5.1
# ℹ 142 more rows
# ℹ 743 more variables: `2023 Nov` <dbl>, `2023 Oct` <dbl>, `2023 Sep` <dbl>,
#   `2023 Aug` <dbl>, `2023 Jul` <dbl>, `2023 Jun` <dbl>, `2023 May` <dbl>,
#   `2023 Apr` <dbl>, `2023 Mar` <dbl>, `2023 Feb` <dbl>, `2023 Jan` <dbl>,
#   `2022 Dec` <dbl>, `2022 Nov` <dbl>, `2022 Oct` <dbl>, `2022 Sep` <dbl>,
#   `2022 Aug` <dbl>, `2022 Jul` <dbl>, `2022 Jun` <dbl>, `2022 May` <dbl>,
#   `2022 Apr` <dbl>, `2022 Mar` <dbl>, `2022 Feb` <dbl>, `2022 Jan` <dbl>, …
…
