project_plot
…
# Combine the average data with the original long data
combined_data <- bind_rows(long_data, average_data)

# Ensure "Average" appears last in the plot
combined_data$Month <- factor(combined_data$Month, levels = c(levels(long_data$Month), "Average"))

# Filter out any NA values
combined_data <- combined_data %>% filter(!is.na(Month))

print(combined_data)

# A tibble: 156 × 4
   `Data Series`  Year Month Percent_Change
   <chr>         <dbl> <fct>          <dbl>
 1 All Items      2023 Dec              3.7
 2 All Items      2023 Nov              3.6
 3 All Items      2023 Oct              4.7
 4 All Items      2023 Sep              4.1
 5 All Items      2023 Aug              4  
 6 All Items      2023 Jul              4.1
 7 All Items      2023 Jun              4.5
 8 All Items      2023 May              5.1
 9 All Items      2023 Apr              5.7
10 All Items      2023 Mar              5.5
# ℹ 146 more rows
…
