Consolidated
…
Data

inflation_rate <- read_csv("M212911.csv", skip = 10)

inflation_rate <- inflation_rate[1:152,]

inflation_rate 

# A tibble: 152 × 749
   `Data Series`          `2024 Apr` `2024 Mar` `2024 Feb` `2024 Jan` `2023 Dec`
   <chr>                       <dbl>      <dbl>      <dbl>      <dbl>      <dbl>
 1 All Items                     2.7        2.7        3.4        2.9        3.7
 2 Food                          2.8        3          3.8        3.3        3.7
 3 Food Excl Food Servin…        0.6        0.9        3.2        2.2        2.5
 4 Bread & Cereals               3.5        3.8        4.3        4.8        4.9
 5 Rice                          2.2        3.7        4          4.3        4.8
 6 Flour                        -0.8       -1.4        1.3       -1.6        6.7
 7 Bread                         3.8        4.3        5.5        6.7        6.1
 8 Noodles & Pasta               0.7        1.5        2          2.6        1.2
 9 Biscuits & Cookies            2.5        2          3.9        4.4        1.4
10 Cakes & Pastries              4.5        3.8        3.6        3.7        5.1
# ℹ 142 more rows
# ℹ 743 more variables: `2023 Nov` <dbl>, `2023 Oct` <dbl>, `2023 Sep` <dbl>,
#   `2023 Aug` <dbl>, `2023 Jul` <dbl>, `2023 Jun` <dbl>, `2023 May` <dbl>,
#   `2023 Apr` <dbl>, `2023 Mar` <dbl>, `2023 Feb` <dbl>, `2023 Jan` <dbl>,
#   `2022 Dec` <dbl>, `2022 Nov` <dbl>, `2022 Oct` <dbl>, `2022 Sep` <dbl>,
#   `2022 Aug` <dbl>, `2022 Jul` <dbl>, `2022 Jun` <dbl>, `2022 May` <dbl>,
#   `2022 Apr` <dbl>, `2022 Mar` <dbl>, `2022 Feb` <dbl>, `2022 Jan` <dbl>, …
…
filtered_month_data <- filtered_data |>
  pivot_longer(cols = -`Data Series`, names_to = "month", values_to = "inflation_rate")

# Convert month to proper date format
filtered_month_data <- filtered_month_data |>
  mutate(month = as.POSIXct(strptime(paste(month, "01"), "%Y %b %d")))

inflation_rate_yearly <- read_csv("M212941.csv", skip = 9)

inflation_rate_yearly <- inflation_rate_yearly[1:152,]

inflation_rate_yearly

# A tibble: 152 × 63
   `Data Series`  `2023` `2022` `2021` `2020` `2019` `2018` `2017` `2016` `2015`
   <chr>           <dbl>  <dbl>  <dbl>  <dbl> <chr>  <chr>  <chr>  <chr>  <chr> 
 1 All Items         4.8    6.1    2.3   -0.2 0.6    0.4    0.6    -0.5   -0.5  
 2 Food              5.8    5.3    1.4    1.9 1.5    1.4    1.4    2.1    1.9   
 3 Food Excl Foo…    5.1    5.3    1.6    2.9 1.1    1.3    1.3    2.3    1.2   
 4 Bread & Cerea…    6.8    4      0.6    1.9 1.5    1.4    0.6    1.3    1.3   
 5 Rice              3     -1.4   -1.9    1.8 3.9    1.4    -0.5   0.8    -0.9  
 6 Flour            10.8    2.1   -2     -2.1 -0.2   -1.9   0.3    1.1    -0.9  
 7 Bread             8.2    5.1    1.1    1   1.1    1.6    0.6    1.8    2     
 8 Noodles & Pas…    6.5    6.7    1.2    2   -0.7   0.5    0.1    1      -1.2  
 9 Biscuits & Co…    6.8    7.4    0.4    4.2 1.3    1.6    1.1    2.1    1.5   
10 Cakes & Pastr…    6.7    4.1    1.5    2.3 1.5    2      1.5    0.7    3     
# ℹ 142 more rows
# ℹ 53 more variables: `2014` <chr>, `2013` <chr>, `2012` <chr>, `2011` <chr>,
#   `2010` <chr>, `2009` <chr>, `2008` <chr>, `2007` <chr>, `2006` <chr>,
#   `2005` <chr>, `2004` <chr>, `2003` <chr>, `2002` <chr>, `2001` <chr>,
#   `2000` <chr>, `1999` <chr>, `1998` <chr>, `1997` <chr>, `1996` <chr>,
#   `1995` <chr>, `1994` <chr>, `1993` <chr>, `1992` <chr>, `1991` <chr>,
#   `1990` <chr>, `1989` <chr>, `1988` <chr>, `1987` <chr>, `1986` <chr>, …
…
